<svg width="28" height="21" viewBox="0 0 28 21" fill="none" xmlns="http://www.w3.org/2000/svg">
<g id="Group 1656">
<path id="Vector" fill-rule="evenodd" clip-rule="evenodd" d="M2.11572 16.679C0.980942 15.2226 0.226041 13.4558 0 11.5272H2.46332C2.65764 12.7852 3.1475 13.9454 3.85949 14.9352L2.11572 16.679Z" fill="#F3F6F9"/>
<path id="Vector_2" fill-rule="evenodd" clip-rule="evenodd" d="M9.03137 20.606C7.0971 20.3692 5.32749 19.5999 3.87329 18.4496L5.61483 16.7079C6.60407 17.4341 7.76776 17.9365 9.03137 18.1404V20.606Z" fill="#F3F6F9"/>
<path id="Vector_3" fill-rule="evenodd" clip-rule="evenodd" d="M3.88176 5.64671C3.16782 6.62915 2.67376 7.78174 2.47188 9.03219H0.00585938C0.241043 7.11108 1.00136 5.35229 2.13874 3.90359L3.88176 5.64671Z" fill="#F3F6F9"/>
<path id="Vector_4" fill-rule="evenodd" clip-rule="evenodd" d="M9.03167 2.47257C7.78112 2.67436 6.62853 3.16861 5.64601 3.88265L3.90308 2.13972C5.35177 1.00242 7.11056 0.242111 9.03167 0.00692749V2.47257Z" fill="#F3F6F9"/>
<path id="Vector_5" fill-rule="evenodd" clip-rule="evenodd" d="M11.5264 0C13.4551 0.226041 15.2221 0.981128 16.6785 2.11609L14.9341 3.86051C13.9444 3.14853 12.7843 2.65866 11.5264 2.46434V0Z" fill="#F3F6F9"/>
<path id="Vector_6" d="M8.62744 20.445V11.3037C13.979 11.3037 19.3317 11.2775 24.6808 11.2775H24.7114V11.3419C24.7114 12.7712 23.719 13.9799 22.3893 14.3133H13.2388C13.0563 14.3133 12.8811 14.3456 12.7184 14.4046H11.7283V15.5687C11.7112 15.6601 11.7022 15.7544 11.7022 15.8506C11.7022 15.9469 11.7112 16.0411 11.7283 16.1325V20.6064H9.02355L8.62744 20.445ZM11.7283 8.20281C10.8559 8.20281 10.12 7.90504 9.52461 7.30556C8.92513 6.69367 8.62744 5.95771 8.62744 5.10187C13.4759 5.10187 18.3243 5.10187 23.1729 5.10187C23.5772 5.17939 23.9297 5.36541 24.1886 5.61851C24.5582 5.97954 24.6665 6.59581 24.7114 7.16665V8.20281C20.3837 8.20281 16.056 8.20281 11.7283 8.20281ZM24.0145 17.388L27.2329 20.6064H22.5816L19.3631 17.388H24.0145Z" fill="#F3F6F9"/>
<path id="Vector_7" fill-rule="evenodd" clip-rule="evenodd" d="M11.2827 12.8459H14.712V14.3132H13.2391C12.4962 14.3132 11.8722 14.8477 11.732 15.5513H11.2827V12.8459Z" fill="#F3F6F9"/>
</g>
</svg>
