<svg width="100" height="100" viewBox="0 0 100 100" fill="none" xmlns="http://www.w3.org/2000/svg">
<path d="M11.91 24.95C9.29001 24.95 7.17001 27.07 7.17001 29.69V66.93C7.17001 69.55 9.29001 71.67 11.91 71.67H47.18V24.95H11.91Z" fill="#04C8C8"/>
<path d="M82.53 24.95H47.18V71.66H82.53C85.15 71.66 87.27 69.54 87.27 66.92V29.69C87.27 27.07 85.15 24.95 82.53 24.95Z" fill="#08B2AD"/>
<path d="M87.27 34.33H7.17001V39.62H87.27V34.33Z" fill="#231F20"/>
<path d="M44.99 46.25H9.36002V53.09H44.99V46.25Z" fill="#1C4F8C"/>
<path opacity="0.44" d="M18.61 46.25H44.99V49.29H20.95C19.66 49.29 18.61 48.24 18.61 46.95V46.25Z" fill="white"/>
<path d="M18.98 59.72H10.8C10.0655 59.72 9.47 60.3154 9.47 61.05V61.84C9.47 62.5745 10.0655 63.17 10.8 63.17H18.98C19.7145 63.17 20.31 62.5745 20.31 61.84V61.05C20.31 60.3154 19.7145 59.72 18.98 59.72Z" fill="#1C4F8C"/>
<path d="M31.26 59.72H23.08C22.3455 59.72 21.75 60.3154 21.75 61.05V61.84C21.75 62.5745 22.3455 63.17 23.08 63.17H31.26C31.9945 63.17 32.59 62.5745 32.59 61.84V61.05C32.59 60.3154 31.9945 59.72 31.26 59.72Z" fill="#1C4F8C"/>
<path d="M43.66 59.72H35.48C34.7455 59.72 34.15 60.3154 34.15 61.05V61.84C34.15 62.5745 34.7455 63.17 35.48 63.17H43.66C44.3946 63.17 44.99 62.5745 44.99 61.84V61.05C44.99 60.3154 44.3946 59.72 43.66 59.72Z" fill="#1C4F8C"/>
<path opacity="0.33" d="M23.4 24.95H83.6C85.62 24.95 87.26 26.59 87.26 28.61V37.36H29.91C26.32 37.36 23.4 34.44 23.4 30.85V24.94V24.95Z" fill="white"/>
<path d="M81.85 75.05C87.9141 75.05 92.83 70.1341 92.83 64.07C92.83 58.0059 87.9141 53.09 81.85 53.09C75.7859 53.09 70.87 58.0059 70.87 64.07C70.87 70.1341 75.7859 75.05 81.85 75.05Z" fill="#1C4F8C"/>
<path d="M88.85 59.2C88.21 58.65 87.25 58.72 86.7 59.36L81.29 65.65L76.82 62.05C76.16 61.52 75.2 61.63 74.67 62.28C74.14 62.94 74.25 63.9 74.9 64.43L80.4 68.86C80.4 68.86 80.45 68.92 80.48 68.94C81.12 69.49 82.08 69.42 82.63 68.78L89.01 61.36C89.56 60.72 89.49 59.76 88.85 59.21V59.2Z" fill="#04C8C8"/>
</svg>
