<svg width="100" height="100" viewBox="0 0 100 100" fill="none" xmlns="http://www.w3.org/2000/svg">
<path d="M50.02 62.17V18.04H49.84H18.89H18.79V62.17H49.74H50.02Z" fill="#1C4F8C"/>
<path d="M50.02 18.04V62.17H81.21V18.04H50.12H50.02Z" fill="#164370"/>
<path d="M79.07 13.27H50.12V18.04H81.32V15.52C81.32 14.28 80.31 13.27 79.07 13.27Z" fill="#08B2AD"/>
<path d="M50.02 18.04H50.12V13.27H21.13C19.89 13.27 18.88 14.28 18.88 15.52V18.04H50.01H50.02Z" fill="#04C8C8"/>
<path d="M50.02 66.94H58.35V66.88L59.85 66.48L61.32 66.09H61.33L61.56 66.93H78.96C80.2 66.93 81.21 65.92 81.21 64.68V62.16H50.01V66.93L50.02 66.94Z" fill="#08B2AD"/>
<path d="M50.02 62.17H18.79V64.69C18.79 65.93 19.8 66.94 21.04 66.94H39.3L39.52 66.12C39.52 66.12 39.52 66.11 39.53 66.12L41 66.52L42.52 66.93V66.95H49.74H50.02V62.18V62.17Z" fill="#04C8C8"/>
<path d="M41 66.51L39.53 66.11H39.52L39.3 66.93L34.46 84.94C34.26 85.68 34.7 86.44 35.44 86.64L35.58 86.68L41.01 66.5L41 66.51Z" fill="#04C8C8"/>
<path d="M41 66.51L35.57 86.69C35.57 86.69 35.59 86.69 35.6 86.69C36.43 86.9 37.28 86.41 37.5 85.58L42.51 66.95V66.93L41 66.52V66.51Z" fill="#08B2AD"/>
<path d="M61.32 66.09L59.85 66.48L65.23 86.67L65.37 86.63C66.11 86.43 66.55 85.67 66.35 84.93L61.55 66.94L61.32 66.1C61.32 66.1 61.32 66.09 61.31 66.1L61.32 66.09Z" fill="#04C8C8"/>
<path d="M59.85 66.48L58.33 66.88V66.94L63.31 85.55C63.53 86.38 64.38 86.87 65.21 86.67C65.21 86.67 65.23 86.67 65.24 86.67L59.86 66.48H59.85Z" fill="#08B2AD"/>
<path d="M39.74 29.21H28.2V37.15H39.74V29.21Z" fill="white"/>
<path d="M55.87 29.21H44.33V37.15H55.87V29.21Z" fill="white"/>
<path d="M71.8 29.21H60.26V37.15H71.8V29.21Z" fill="white"/>
<path d="M39.74 41.01H28.2V48.95H39.74V41.01Z" fill="white"/>
<path d="M55.87 41.01H44.33V48.95H55.87V41.01Z" fill="white"/>
<path d="M71.8 41.01H60.26V48.95H71.8V41.01Z" fill="white"/>
</svg>
